<svg xmlns="http://www.w3.org/2000/svg" width="32" height="32" viewBox="0 0 32 32">
    <g fill="#289FF9" fill-rule="evenodd">
        <path fill-opacity=".1" d="M32 16c0 8.837-7.163 16-16 16S0 24.837 0 16 7.163 0 16 0s16 7.163 16 16z"/>
        <path d="M13.547 21.969a1.174 1.174 0 0 1-.566-.314l-3.636-3.636a1.187 1.187 0 0 1 0-1.674c.46-.46 1.214-.46 1.674 0l2.86 2.861 7.812-7.811a1.358 1.358 0 0 1 1.914 0 1.358 1.358 0 0 1 0 1.914l-8.295 8.296c-.395.395-1.175.539-1.763.364z"/>
    </g>
</svg>
