<?xml version="1.0" encoding="UTF-8"?>
<svg width="74px" height="71px" viewBox="0 0 74 71" version="1.1" xmlns="http://www.w3.org/2000/svg" xmlns:xlink="http://www.w3.org/1999/xlink">
    <!-- Generator: Sketch 50.2 (55047) - http://www.bohemiancoding.com/sketch -->
    <title>Web design icon</title>
    <desc>Created with Sketch.</desc>
    <defs></defs>
    <g id="Page-1" stroke="none" stroke-width="1" fill="none" fill-rule="evenodd">
        <g id="WAC-Homepage" transform="translate(-363.000000, -2517.000000)">
            <g id="Web-design-icon" transform="translate(364.000000, 2518.000000)">
                <g id="Page-1">
                    <path d="M70.9359072,0.180412371 C71.7143505,0.180412371 72.3453608,0.81156701 72.3453608,1.58986598 L72.3453608,16.0875155 C72.3453608,16.8658144 71.7143505,17.4969691 70.9359072,17.4969691 L1.58986598,17.4969691 C0.81142268,17.4969691 0.180412371,16.8658144 0.180412371,16.0875155 L0.180412371,1.58986598 C0.180412371,0.81156701 0.81142268,0.180412371 1.58986598,0.180412371 L70.9359072,0.180412371 Z M2.99931959,14.6780619 L69.5263814,14.6780619 L69.5263814,2.99939175 L2.99931959,2.99939175 L2.99931959,14.6780619 Z M61.1698247,12.8003299 C61.8862784,12.8003299 62.5764639,12.6329072 63.1978041,12.3188454 L64.3489072,13.4700206 C64.6241443,13.7451134 64.9848247,13.8828041 65.3455052,13.8828041 C65.7061856,13.8828041 66.0670103,13.7451134 66.3421753,13.4700206 C66.8925773,12.9196186 66.8925773,12.0270825 66.3421753,11.4766082 L65.1910722,10.3255052 C65.5052062,9.70416495 65.6725567,9.01383505 65.6725567,8.29752577 C65.6725567,7.09482474 65.204134,5.96385567 64.3536701,5.11339175 C62.5980412,3.35790722 59.7414639,3.35776289 57.9856907,5.11339175 C57.1352268,5.96385567 56.6668763,7.09482474 56.6668763,8.29752577 C56.6668763,9.5002268 57.1353711,10.6311959 57.9856907,11.4815155 C58.836299,12.3319794 59.9671237,12.8003299 61.1698247,12.8003299 Z M43.9622371,9.98142268 C44.7406804,9.98142268 45.3716907,10.6125773 45.3716907,11.3908763 C45.3716907,12.1691753 44.7406804,12.8003299 43.9622371,12.8003299 L14.6688969,12.8003299 C13.8904536,12.8003299 13.2594433,12.1691753 13.2594433,11.3908763 C13.2594433,10.6125773 13.8903814,9.98142268 14.6688969,9.98142268 L43.9622371,9.98142268 Z M48.0037629,11.9298763 C48.0389794,12.0145979 48.0826392,12.0962887 48.1334433,12.1737216 C48.1855464,12.2497835 48.2433505,12.3231031 48.3081546,12.3879072 C48.3744021,12.4527835 48.4462784,12.5121031 48.5238557,12.5626907 C48.5999175,12.6134227 48.6816804,12.6571546 48.7662577,12.6923711 C48.8522062,12.7275876 48.9410412,12.754433 49.0298041,12.7726907 C49.1214536,12.7910206 49.2144742,12.7995361 49.3060515,12.7995361 C49.397701,12.7995361 49.4907216,12.7908763 49.5809278,12.7726907 C49.671134,12.7545773 49.7598969,12.7275876 49.8444742,12.6923711 C49.9290515,12.6571546 50.0122577,12.6134227 50.0883196,12.5626907 C50.1658247,12.5121031 50.2377732,12.4527835 50.3025773,12.3879072 C50.5647526,12.1245052 50.7155773,11.7623093 50.7155773,11.3915979 C50.7155773,11.2985773 50.7056907,11.2067835 50.6873608,11.1153505 C50.6690309,11.025 50.6422577,10.9361649 50.6070412,10.851732 C50.5717526,10.7670825 50.5280928,10.6840206 50.4773608,10.6079588 C50.4266289,10.5318247 50.3673814,10.4585052 50.3025773,10.393701 C50.2377732,10.3288247 50.1658247,10.2696495 50.0883196,10.2189175 C50.0122577,10.1681856 49.9304948,10.1244536 49.8444742,10.0892371 C49.7598969,10.0540206 49.671134,10.0272474 49.5809278,10.0089175 C49.3990722,9.97225773 49.2116598,9.97225773 49.0298041,10.0089175 C48.9395979,10.0272474 48.8508351,10.0540206 48.7662577,10.0892371 C48.6816804,10.1244536 48.5999175,10.1681856 48.5238557,10.2189175 C48.4462784,10.2696495 48.3744021,10.3288247 48.3081546,10.393701 C48.2433505,10.4585052 48.1855464,10.5316804 48.1334433,10.6079588 C48.0826392,10.6840206 48.0389794,10.7672268 48.0037629,10.851732 C47.9684742,10.9363093 47.941701,11.025 47.9233711,11.1153505 C47.9051134,11.2067835 47.8965979,11.2985773 47.8965979,11.3915979 C47.8965979,11.4830309 47.9051134,11.5748247 47.9233711,11.6664021 C47.941701,11.7566082 47.9684742,11.8454433 48.0037629,11.9298763 Z M59.9791031,7.10680412 C60.3073814,6.77852577 60.7387113,6.61449485 61.1698247,6.61449485 C61.6010103,6.61449485 62.032268,6.77852577 62.3605464,7.10680412 C62.6785052,7.42490722 62.853866,7.84779381 62.853866,8.29752577 C62.853866,8.74725773 62.6786495,9.17014433 62.3605464,9.48810309 C62.0425876,9.80620619 61.6197732,9.98142268 61.1698247,9.98142268 C60.7199485,9.98142268 60.2972784,9.80620619 59.9791031,9.48810309 C59.6611443,9.17 59.4857835,8.74725773 59.4857835,8.29752577 C59.4857835,7.84779381 59.6611443,7.42476289 59.9791031,7.10680412 Z" id="Fill-1" fill="#3C4262"></path>
                    <path d="M70.9359072,0.180412371 C71.7143505,0.180412371 72.3453608,0.81156701 72.3453608,1.58986598 L72.3453608,16.0875155 C72.3453608,16.8658144 71.7143505,17.4969691 70.9359072,17.4969691 L1.58986598,17.4969691 C0.81142268,17.4969691 0.180412371,16.8658144 0.180412371,16.0875155 L0.180412371,1.58986598 C0.180412371,0.81156701 0.81142268,0.180412371 1.58986598,0.180412371 L70.9359072,0.180412371 Z M2.99931959,14.6780619 L69.5263814,14.6780619 L69.5263814,2.99939175 L2.99931959,2.99939175 L2.99931959,14.6780619 Z M61.1698247,12.8003299 C61.8862784,12.8003299 62.5764639,12.6329072 63.1978041,12.3188454 L64.3489072,13.4700206 C64.6241443,13.7451134 64.9848247,13.8828041 65.3455052,13.8828041 C65.7061856,13.8828041 66.0670103,13.7451134 66.3421753,13.4700206 C66.8925773,12.9196186 66.8925773,12.0270825 66.3421753,11.4766082 L65.1910722,10.3255052 C65.5052062,9.70416495 65.6725567,9.01383505 65.6725567,8.29752577 C65.6725567,7.09482474 65.204134,5.96385567 64.3536701,5.11339175 C62.5980412,3.35790722 59.7414639,3.35776289 57.9856907,5.11339175 C57.1352268,5.96385567 56.6668763,7.09482474 56.6668763,8.29752577 C56.6668763,9.5002268 57.1353711,10.6311959 57.9856907,11.4815155 C58.836299,12.3319794 59.9671237,12.8003299 61.1698247,12.8003299 Z M43.9622371,9.98142268 C44.7406804,9.98142268 45.3716907,10.6125773 45.3716907,11.3908763 C45.3716907,12.1691753 44.7406804,12.8003299 43.9622371,12.8003299 L14.6688969,12.8003299 C13.8904536,12.8003299 13.2594433,12.1691753 13.2594433,11.3908763 C13.2594433,10.6125773 13.8903814,9.98142268 14.6688969,9.98142268 L43.9622371,9.98142268 Z M48.0037629,11.9298763 C48.0389794,12.0145979 48.0826392,12.0962887 48.1334433,12.1737216 C48.1855464,12.2497835 48.2433505,12.3231031 48.3081546,12.3879072 C48.3744021,12.4527835 48.4462784,12.5121031 48.5238557,12.5626907 C48.5999175,12.6134227 48.6816804,12.6571546 48.7662577,12.6923711 C48.8522062,12.7275876 48.9410412,12.754433 49.0298041,12.7726907 C49.1214536,12.7910206 49.2144742,12.7995361 49.3060515,12.7995361 C49.397701,12.7995361 49.4907216,12.7908763 49.5809278,12.7726907 C49.671134,12.7545773 49.7598969,12.7275876 49.8444742,12.6923711 C49.9290515,12.6571546 50.0122577,12.6134227 50.0883196,12.5626907 C50.1658247,12.5121031 50.2377732,12.4527835 50.3025773,12.3879072 C50.5647526,12.1245052 50.7155773,11.7623093 50.7155773,11.3915979 C50.7155773,11.2985773 50.7056907,11.2067835 50.6873608,11.1153505 C50.6690309,11.025 50.6422577,10.9361649 50.6070412,10.851732 C50.5717526,10.7670825 50.5280928,10.6840206 50.4773608,10.6079588 C50.4266289,10.5318247 50.3673814,10.4585052 50.3025773,10.393701 C50.2377732,10.3288247 50.1658247,10.2696495 50.0883196,10.2189175 C50.0122577,10.1681856 49.9304948,10.1244536 49.8444742,10.0892371 C49.7598969,10.0540206 49.671134,10.0272474 49.5809278,10.0089175 C49.3990722,9.97225773 49.2116598,9.97225773 49.0298041,10.0089175 C48.9395979,10.0272474 48.8508351,10.0540206 48.7662577,10.0892371 C48.6816804,10.1244536 48.5999175,10.1681856 48.5238557,10.2189175 C48.4462784,10.2696495 48.3744021,10.3288247 48.3081546,10.393701 C48.2433505,10.4585052 48.1855464,10.5316804 48.1334433,10.6079588 C48.0826392,10.6840206 48.0389794,10.7672268 48.0037629,10.851732 C47.9684742,10.9363093 47.941701,11.025 47.9233711,11.1153505 C47.9051134,11.2067835 47.8965979,11.2985773 47.8965979,11.3915979 C47.8965979,11.4830309 47.9051134,11.5748247 47.9233711,11.6664021 C47.941701,11.7566082 47.9684742,11.8454433 48.0037629,11.9298763 Z M59.9791031,7.10680412 C60.3073814,6.77852577 60.7387113,6.61449485 61.1698247,6.61449485 C61.6010103,6.61449485 62.032268,6.77852577 62.3605464,7.10680412 C62.6785052,7.42490722 62.853866,7.84779381 62.853866,8.29752577 C62.853866,8.74725773 62.6786495,9.17014433 62.3605464,9.48810309 C62.0425876,9.80620619 61.6197732,9.98142268 61.1698247,9.98142268 C60.7199485,9.98142268 60.2972784,9.80620619 59.9791031,9.48810309 C59.6611443,9.17 59.4857835,8.74725773 59.4857835,8.29752577 C59.4857835,7.84779381 59.6611443,7.42476289 59.9791031,7.10680412 Z" id="Stroke-2" stroke="#FFFFFF" stroke-width="0.5" stroke-linejoin="round"></path>
                    <path d="M43.1438866,22.3252371 L43.1438866,45.2144433 L32.1559794,30.5643814 C31.8897629,30.2095464 31.472,30.0006289 31.0284021,30.0006289 C30.5848763,30.0006289 30.1671134,30.2095464 29.9008247,30.5643814 L21.0085155,42.4207216 L14.5089072,34.894134 C14.2412474,34.5841856 13.8518454,34.4059381 13.4422371,34.4059381 C13.0326289,34.4059381 12.643299,34.5841856 12.375567,34.894134 L3.16580412,45.5571546 L3.16580412,22.3252371 L43.1438866,22.3252371 Z M17.3485258,47.300732 L5.38487629,47.300732 L13.4420928,37.9720412 L19.2772784,44.7289897 L17.3485258,47.300732 Z M28.7176082,36.8403505 L31.0284021,33.7594124 L33.3391959,36.8403505 L28.7176082,36.8403505 Z M23.500299,43.7966186 L30.3346804,43.7966186 C31.1131237,43.7966186 31.744134,43.1654639 31.744134,42.3871649 C31.744134,41.608866 31.1131237,40.9777113 30.3346804,40.9777113 L25.6146598,40.9777113 L26.6035361,39.6592577 L35.4534124,39.6592577 L41.1850412,47.300732 L20.8721959,47.300732 L23.500299,43.7966186 Z M1.75635052,50.1197835 L44.5533402,50.1197835 C45.3317835,50.1197835 45.962866,49.4886289 45.962866,48.7103299 L45.962866,20.9157835 C45.962866,20.1374845 45.3317835,19.5063299 44.5533402,19.5063299 L1.75635052,19.5063299 C0.977907216,19.5063299 0.346896907,20.1374845 0.346896907,20.9157835 L0.346896907,48.7103299 C0.346896907,49.4887732 0.977907216,50.1197835 1.75635052,50.1197835 Z" id="Fill-3" fill="#3C4262"></path>
                    <path d="M43.1438866,22.3252371 L43.1438866,45.2144433 L32.1559794,30.5643814 C31.8897629,30.2095464 31.472,30.0006289 31.0284021,30.0006289 C30.5848763,30.0006289 30.1671134,30.2095464 29.9008247,30.5643814 L21.0085155,42.4207216 L14.5089072,34.894134 C14.2412474,34.5841856 13.8518454,34.4059381 13.4422371,34.4059381 C13.0326289,34.4059381 12.643299,34.5841856 12.375567,34.894134 L3.16580412,45.5571546 L3.16580412,22.3252371 L43.1438866,22.3252371 Z M17.3485258,47.300732 L5.38487629,47.300732 L13.4420928,37.9720412 L19.2772784,44.7289897 L17.3485258,47.300732 Z M28.7176082,36.8403505 L31.0284021,33.7594124 L33.3391959,36.8403505 L28.7176082,36.8403505 Z M23.500299,43.7966186 L30.3346804,43.7966186 C31.1131237,43.7966186 31.744134,43.1654639 31.744134,42.3871649 C31.744134,41.608866 31.1131237,40.9777113 30.3346804,40.9777113 L25.6146598,40.9777113 L26.6035361,39.6592577 L35.4534124,39.6592577 L41.1850412,47.300732 L20.8721959,47.300732 L23.500299,43.7966186 Z M1.75635052,50.1197835 L44.5533402,50.1197835 C45.3317835,50.1197835 45.962866,49.4886289 45.962866,48.7103299 L45.962866,20.9157835 C45.962866,20.1374845 45.3317835,19.5063299 44.5533402,19.5063299 L1.75635052,19.5063299 C0.977907216,19.5063299 0.346896907,20.1374845 0.346896907,20.9157835 L0.346896907,48.7103299 C0.346896907,49.4887732 0.977907216,50.1197835 1.75635052,50.1197835 Z" id="Stroke-4" stroke="#FFFFFF" stroke-width="0.5" stroke-linejoin="round"></path>
                    <path d="M19.5814536,26.7626598 C20.7745567,26.7626598 21.7453918,27.7333505 21.7453918,28.9265979 C21.7453918,30.1198454 20.774701,31.0905361 19.5814536,31.0905361 C18.3882062,31.0905361 17.4174433,30.1198454 17.4174433,28.9265979 C17.4174433,27.7333505 18.3883505,26.7626598 19.5814536,26.7626598 Z M19.5814536,33.9093711 C22.3290619,33.9093711 24.564299,31.6740619 24.564299,28.9264536 C24.564299,26.1788454 22.3290619,23.9436082 19.5814536,23.9436082 C16.8338454,23.9436082 14.5985361,26.1788454 14.5985361,28.9264536 C14.5985361,31.6740619 16.8339897,33.9093711 19.5814536,33.9093711 Z" id="Fill-5" fill="#3C4262"></path>
                    <path d="M19.5814536,26.7626598 C20.7745567,26.7626598 21.7453918,27.7333505 21.7453918,28.9265979 C21.7453918,30.1198454 20.774701,31.0905361 19.5814536,31.0905361 C18.3882062,31.0905361 17.4174433,30.1198454 17.4174433,28.9265979 C17.4174433,27.7333505 18.3883505,26.7626598 19.5814536,26.7626598 Z M19.5814536,33.9093711 C22.3290619,33.9093711 24.564299,31.6740619 24.564299,28.9264536 C24.564299,26.1788454 22.3290619,23.9436082 19.5814536,23.9436082 C16.8338454,23.9436082 14.5985361,26.1788454 14.5985361,28.9264536 C14.5985361,31.6740619 16.8339897,33.9093711 19.5814536,33.9093711 Z" id="Stroke-6" stroke="#FFFFFF" stroke-width="0.5" stroke-linejoin="round"></path>
                    <path d="M69.5264536,47.3008041 L50.6832474,47.3008041 L50.6832474,22.3252371 L69.5264536,22.3252371 L69.5264536,47.3008041 Z M70.9359072,19.5063299 L49.2737938,19.5063299 C48.4953505,19.5063299 47.8643402,20.1374845 47.8643402,20.9157835 L47.8643402,48.7103299 C47.8643402,49.4886289 48.4953505,50.1197835 49.2737938,50.1197835 L70.9359072,50.1197835 C71.7143505,50.1197835 72.3453608,49.4886289 72.3453608,48.7103299 L72.3453608,20.9157835 C72.3453608,20.1374845 71.7143505,19.5063299 70.9359072,19.5063299 Z" id="Fill-7" fill="#3C4262"></path>
                    <path d="M69.5264536,47.3008041 L50.6832474,47.3008041 L50.6832474,22.3252371 L69.5264536,22.3252371 L69.5264536,47.3008041 Z M70.9359072,19.5063299 L49.2737938,19.5063299 C48.4953505,19.5063299 47.8643402,20.1374845 47.8643402,20.9157835 L47.8643402,48.7103299 C47.8643402,49.4886289 48.4953505,50.1197835 49.2737938,50.1197835 L70.9359072,50.1197835 C71.7143505,50.1197835 72.3453608,49.4886289 72.3453608,48.7103299 L72.3453608,20.9157835 C72.3453608,20.1374845 71.7143505,19.5063299 70.9359072,19.5063299 Z" id="Stroke-8" stroke="#FFFFFF" stroke-width="0.5" stroke-linejoin="round"></path>
                    <path d="M53.9649485,27.4656907 L66.2447526,27.4656907 C67.0231959,27.4656907 67.6542062,26.8345361 67.6542062,26.0562371 C67.6542062,25.2779381 67.0231959,24.6467835 66.2447526,24.6467835 L53.9649485,24.6467835 C53.1865052,24.6467835 52.5554948,25.2779381 52.5554948,26.0562371 C52.5554948,26.8345361 53.1865052,27.4656907 53.9649485,27.4656907 Z" id="Fill-9" fill="#3C4262"></path>
                    <path d="M53.9649485,27.4656907 L66.2447526,27.4656907 C67.0231959,27.4656907 67.6542062,26.8345361 67.6542062,26.0562371 C67.6542062,25.2779381 67.0231959,24.6467835 66.2447526,24.6467835 L53.9649485,24.6467835 C53.1865052,24.6467835 52.5554948,25.2779381 52.5554948,26.0562371 C52.5554948,26.8345361 53.1865052,27.4656907 53.9649485,27.4656907 Z" id="Stroke-10" stroke="#FFFFFF" stroke-width="0.5" stroke-linejoin="round"></path>
                    <path d="M53.9649485,33.1224845 L66.2447526,33.1224845 C67.0231959,33.1224845 67.6542062,32.4913299 67.6542062,31.7129588 C67.6542062,30.9346598 67.0231959,30.3035052 66.2447526,30.3035052 L53.9649485,30.3035052 C53.1865052,30.3035052 52.5554948,30.9346598 52.5554948,31.7129588 C52.5554948,32.4913299 53.1865052,33.1224845 53.9649485,33.1224845 Z" id="Fill-11" fill="#3C4262"></path>
                    <path d="M53.9649485,33.1224845 L66.2447526,33.1224845 C67.0231959,33.1224845 67.6542062,32.4913299 67.6542062,31.7129588 C67.6542062,30.9346598 67.0231959,30.3035052 66.2447526,30.3035052 L53.9649485,30.3035052 C53.1865052,30.3035052 52.5554948,30.9346598 52.5554948,31.7129588 C52.5554948,32.4913299 53.1865052,33.1224845 53.9649485,33.1224845 Z" id="Stroke-12" stroke="#FFFFFF" stroke-width="0.5" stroke-linejoin="round"></path>
                    <path d="M53.9649485,38.7792062 L66.2447526,38.7792062 C67.0231959,38.7792062 67.6542062,38.1480515 67.6542062,37.3697526 C67.6542062,36.5914536 67.0231959,35.960299 66.2447526,35.960299 L53.9649485,35.960299 C53.1865052,35.960299 52.5554948,36.5914536 52.5554948,37.3697526 C52.5554948,38.1480515 53.1865052,38.7792062 53.9649485,38.7792062 Z" id="Fill-13" fill="#3C4262"></path>
                    <path d="M53.9649485,38.7792062 L66.2447526,38.7792062 C67.0231959,38.7792062 67.6542062,38.1480515 67.6542062,37.3697526 C67.6542062,36.5914536 67.0231959,35.960299 66.2447526,35.960299 L53.9649485,35.960299 C53.1865052,35.960299 52.5554948,36.5914536 52.5554948,37.3697526 C52.5554948,38.1480515 53.1865052,38.7792062 53.9649485,38.7792062 Z" id="Stroke-14" stroke="#FFFFFF" stroke-width="0.5" stroke-linejoin="round"></path>
                    <path d="M52.6634536,43.5654742 C52.6986701,43.6501959 52.7423299,43.7319588 52.793134,43.8093196 C52.843866,43.8854536 52.9030412,43.958701 52.9678454,44.0235773 C53.0327216,44.0883814 53.1060412,44.1475567 53.1821031,44.1982887 C53.2596082,44.2490928 53.3413711,44.2927526 53.4259485,44.3279691 C53.5105258,44.3632577 53.5992887,44.3900309 53.6894948,44.4083608 C53.7811443,44.4266907 53.8727216,44.4365052 53.9658144,44.4365052 C54.3364536,44.4365052 54.6987216,44.2856804 54.9608969,44.023433 C55.025701,43.9585567 55.0848763,43.8854536 55.1370515,43.8091753 C55.1877835,43.7316701 55.2315155,43.6499072 55.266732,43.5653299 C55.3019485,43.4807526 55.3287216,43.392134 55.3470515,43.3017835 C55.3653814,43.2102784 55.3738247,43.1185567 55.3738247,43.0255361 C55.3738247,42.9340309 55.3653814,42.8423093 55.3470515,42.7508041 C55.3287216,42.6604536 55.3019485,42.5716907 55.266732,42.4872577 C55.2315155,42.4025361 55.1877835,42.3207732 55.1370515,42.2434124 C55.0848763,42.1672784 55.0271443,42.0939588 54.9608969,42.0291546 C54.6338454,41.7021753 54.1475979,41.5512062 53.6894948,41.6443711 C53.5992887,41.662701 53.5105258,41.6894742 53.4259485,41.7246907 C53.3413711,41.7599794 53.2596082,41.8036392 53.1821031,41.8543711 C53.1060412,41.9051031 53.0327216,41.9643505 52.9678454,42.0291546 C52.9030412,42.0939588 52.843866,42.167134 52.793134,42.2434124 C52.7423299,42.3209175 52.6986701,42.4026804 52.6634536,42.4872577 C52.6281649,42.5717629 52.6013918,42.6604536 52.5830619,42.7508041 C52.5648041,42.8423093 52.5549175,42.9340309 52.5549175,43.0255361 C52.5549175,43.1185567 52.5648041,43.2102784 52.5830619,43.3017835 C52.6013918,43.392134 52.6281649,43.4808969 52.6634536,43.5654742 Z" id="Fill-15" fill="#3C4262"></path>
                    <path d="M52.6634536,43.5654742 C52.6986701,43.6501959 52.7423299,43.7319588 52.793134,43.8093196 C52.843866,43.8854536 52.9030412,43.958701 52.9678454,44.0235773 C53.0327216,44.0883814 53.1060412,44.1475567 53.1821031,44.1982887 C53.2596082,44.2490928 53.3413711,44.2927526 53.4259485,44.3279691 C53.5105258,44.3632577 53.5992887,44.3900309 53.6894948,44.4083608 C53.7811443,44.4266907 53.8727216,44.4365052 53.9658144,44.4365052 C54.3364536,44.4365052 54.6987216,44.2856804 54.9608969,44.023433 C55.025701,43.9585567 55.0848763,43.8854536 55.1370515,43.8091753 C55.1877835,43.7316701 55.2315155,43.6499072 55.266732,43.5653299 C55.3019485,43.4807526 55.3287216,43.392134 55.3470515,43.3017835 C55.3653814,43.2102784 55.3738247,43.1185567 55.3738247,43.0255361 C55.3738247,42.9340309 55.3653814,42.8423093 55.3470515,42.7508041 C55.3287216,42.6604536 55.3019485,42.5716907 55.266732,42.4872577 C55.2315155,42.4025361 55.1877835,42.3207732 55.1370515,42.2434124 C55.0848763,42.1672784 55.0271443,42.0939588 54.9608969,42.0291546 C54.6338454,41.7021753 54.1475979,41.5512062 53.6894948,41.6443711 C53.5992887,41.662701 53.5105258,41.6894742 53.4259485,41.7246907 C53.3413711,41.7599794 53.2596082,41.8036392 53.1821031,41.8543711 C53.1060412,41.9051031 53.0327216,41.9643505 52.9678454,42.0291546 C52.9030412,42.0939588 52.843866,42.167134 52.793134,42.2434124 C52.7423299,42.3209175 52.6986701,42.4026804 52.6634536,42.4872577 C52.6281649,42.5717629 52.6013918,42.6604536 52.5830619,42.7508041 C52.5648041,42.8423093 52.5549175,42.9340309 52.5549175,43.0255361 C52.5549175,43.1185567 52.5648041,43.2102784 52.5830619,43.3017835 C52.6013918,43.392134 52.6281649,43.4808969 52.6634536,43.5654742 Z" id="Stroke-16" stroke="#FFFFFF" stroke-width="0.5" stroke-linejoin="round"></path>
                    <path d="M66.2447526,41.6168763 L59.3081856,41.6168763 C58.5297423,41.6168763 57.898732,42.2480309 57.898732,43.0263299 C57.898732,43.8046289 58.5297423,44.4357835 59.3081856,44.4357835 L66.2447526,44.4357835 C67.0231959,44.4357835 67.6542062,43.8046289 67.6542062,43.0263299 C67.6542062,42.2480309 67.0231959,41.6168763 66.2447526,41.6168763 Z" id="Fill-17" fill="#3C4262"></path>
                    <path d="M66.2447526,41.6168763 L59.3081856,41.6168763 C58.5297423,41.6168763 57.898732,42.2480309 57.898732,43.0263299 C57.898732,43.8046289 58.5297423,44.4357835 59.3081856,44.4357835 L66.2447526,44.4357835 C67.0231959,44.4357835 67.6542062,43.8046289 67.6542062,43.0263299 C67.6542062,42.2480309 67.0231959,41.6168763 66.2447526,41.6168763 Z" id="Stroke-18" stroke="#FFFFFF" stroke-width="0.5" stroke-linejoin="round"></path>
                    <path d="M22.0089381,66.6373299 L3.16580412,66.6373299 L3.16580412,54.9384536 L22.0089381,54.9384536 L22.0089381,66.6373299 Z M23.4183918,52.1195464 L1.75635052,52.1195464 C0.977907216,52.1195464 0.346896907,52.750701 0.346896907,53.529 L0.346896907,68.0467835 C0.346896907,68.8250825 0.977907216,69.4562371 1.75635052,69.4562371 L23.4183918,69.4562371 C24.1968351,69.4562371 24.8279175,68.8250825 24.8279175,68.0467835 L24.8279175,53.529 C24.8279175,52.750701 24.1968351,52.1195464 23.4183918,52.1195464 Z" id="Fill-19" fill="#3C4262"></path>
                    <path d="M22.0089381,66.6373299 L3.16580412,66.6373299 L3.16580412,54.9384536 L22.0089381,54.9384536 L22.0089381,66.6373299 Z M23.4183918,52.1195464 L1.75635052,52.1195464 C0.977907216,52.1195464 0.346896907,52.750701 0.346896907,53.529 L0.346896907,68.0467835 C0.346896907,68.8250825 0.977907216,69.4562371 1.75635052,69.4562371 L23.4183918,69.4562371 C24.1968351,69.4562371 24.8279175,68.8250825 24.8279175,68.0467835 L24.8279175,53.529 C24.8279175,52.750701 24.1968351,52.1195464 23.4183918,52.1195464 Z" id="Stroke-20" stroke="#FFFFFF" stroke-width="0.5" stroke-linejoin="round"></path>
                    <path d="M69.5264536,66.6373299 L29.7408351,66.6373299 L29.7408351,54.9384536 L69.5264536,54.9384536 L69.5264536,66.6373299 Z M70.9359072,52.1195464 L28.3313814,52.1195464 C27.5529381,52.1195464 26.9219278,52.750701 26.9219278,53.529 L26.9219278,68.0467835 C26.9219278,68.8250825 27.5529381,69.4562371 28.3313814,69.4562371 L70.9359072,69.4562371 C71.7143505,69.4562371 72.3453608,68.8250825 72.3453608,68.0467835 L72.3453608,53.529 C72.3453608,52.750701 71.7143505,52.1195464 70.9359072,52.1195464 Z" id="Fill-21" fill="#3C4262"></path>
                    <path d="M69.5264536,66.6373299 L29.7408351,66.6373299 L29.7408351,54.9384536 L69.5264536,54.9384536 L69.5264536,66.6373299 Z M70.9359072,52.1195464 L28.3313814,52.1195464 C27.5529381,52.1195464 26.9219278,52.750701 26.9219278,53.529 L26.9219278,68.0467835 C26.9219278,68.8250825 27.5529381,69.4562371 28.3313814,69.4562371 L70.9359072,69.4562371 C71.7143505,69.4562371 72.3453608,68.8250825 72.3453608,68.0467835 L72.3453608,53.529 C72.3453608,52.750701 71.7143505,52.1195464 70.9359072,52.1195464 Z" id="Stroke-22" stroke="#FFFFFF" stroke-width="0.5" stroke-linejoin="round"></path>
                    <path d="M33.4777526,61.3275773 C33.5130412,61.4121546 33.556701,61.4938454 33.607433,61.5699794 C33.6596082,61.6474845 33.7187835,61.7193608 33.7836598,61.7842371 C34.0457629,62.0464124 34.4094021,62.1973814 34.7801134,62.1973814 C34.8717629,62.1973814 34.9647835,62.1887216 35.0549897,62.1705361 C35.1451959,62.1522784 35.2339588,62.1240619 35.3185361,62.0888454 C35.4044845,62.0535567 35.4862474,62.011268 35.5623814,61.9591649 C35.6398866,61.9085773 35.7117629,61.8493299 35.7766392,61.7843814 C35.8414433,61.7195052 35.9006186,61.6476289 35.9514227,61.5701237 C36.0021546,61.4939897 36.0458144,61.412299 36.0810309,61.3277216 C36.1163196,61.241701 36.1430928,61.1529381 36.1614227,61.062732 C36.1797526,60.9723814 36.189567,60.8793608 36.189567,60.7878557 C36.189567,60.6962784 36.1797526,60.6031134 36.1614227,60.5130515 C36.1430928,60.4229897 36.1163196,60.3340103 36.0810309,60.249433 C36.0458144,60.1634845 36.0021546,60.081866 35.9514227,60.005732 C35.9006186,59.9280825 35.8414433,59.8562062 35.7766392,59.7914021 C35.7117629,59.7265258 35.6398866,59.6673505 35.5623814,59.6166186 C35.4862474,59.5660309 35.4044845,59.5221546 35.3185361,59.4869381 C35.2339588,59.4517216 35.1451959,59.4235052 35.0549897,59.4051753 C34.873134,59.3699588 34.6857216,59.3699588 34.503866,59.4051753 C34.4151031,59.4235052 34.326268,59.4517216 34.2403196,59.4869381 C34.1557423,59.5221546 34.0739794,59.5660309 33.9978454,59.6166186 C33.9203402,59.6673505 33.8484639,59.7265258 33.7836598,59.7914021 C33.7187835,59.8562062 33.6596082,59.9280825 33.607433,60.005732 C33.556701,60.081866 33.5130412,60.1634845 33.4777526,60.249433 C33.4425361,60.3341546 33.4157629,60.4228454 33.397433,60.5130515 C33.3791031,60.6032577 33.3706598,60.6962784 33.3706598,60.7878557 C33.3706598,60.8793608 33.3791031,60.9725258 33.397433,61.062732 C33.4157629,61.1527938 33.4425361,61.2415567 33.4777526,61.3275773 Z" id="Fill-23" fill="#3C4262"></path>
                    <path d="M33.4777526,61.3275773 C33.5130412,61.4121546 33.556701,61.4938454 33.607433,61.5699794 C33.6596082,61.6474845 33.7187835,61.7193608 33.7836598,61.7842371 C34.0457629,62.0464124 34.4094021,62.1973814 34.7801134,62.1973814 C34.8717629,62.1973814 34.9647835,62.1887216 35.0549897,62.1705361 C35.1451959,62.1522784 35.2339588,62.1240619 35.3185361,62.0888454 C35.4044845,62.0535567 35.4862474,62.011268 35.5623814,61.9591649 C35.6398866,61.9085773 35.7117629,61.8493299 35.7766392,61.7843814 C35.8414433,61.7195052 35.9006186,61.6476289 35.9514227,61.5701237 C36.0021546,61.4939897 36.0458144,61.412299 36.0810309,61.3277216 C36.1163196,61.241701 36.1430928,61.1529381 36.1614227,61.062732 C36.1797526,60.9723814 36.189567,60.8793608 36.189567,60.7878557 C36.189567,60.6962784 36.1797526,60.6031134 36.1614227,60.5130515 C36.1430928,60.4229897 36.1163196,60.3340103 36.0810309,60.249433 C36.0458144,60.1634845 36.0021546,60.081866 35.9514227,60.005732 C35.9006186,59.9280825 35.8414433,59.8562062 35.7766392,59.7914021 C35.7117629,59.7265258 35.6398866,59.6673505 35.5623814,59.6166186 C35.4862474,59.5660309 35.4044845,59.5221546 35.3185361,59.4869381 C35.2339588,59.4517216 35.1451959,59.4235052 35.0549897,59.4051753 C34.873134,59.3699588 34.6857216,59.3699588 34.503866,59.4051753 C34.4151031,59.4235052 34.326268,59.4517216 34.2403196,59.4869381 C34.1557423,59.5221546 34.0739794,59.5660309 33.9978454,59.6166186 C33.9203402,59.6673505 33.8484639,59.7265258 33.7836598,59.7914021 C33.7187835,59.8562062 33.6596082,59.9280825 33.607433,60.005732 C33.556701,60.081866 33.5130412,60.1634845 33.4777526,60.249433 C33.4425361,60.3341546 33.4157629,60.4228454 33.397433,60.5130515 C33.3791031,60.6032577 33.3706598,60.6962784 33.3706598,60.7878557 C33.3706598,60.8793608 33.3791031,60.9725258 33.397433,61.062732 C33.4157629,61.1527938 33.4425361,61.2415567 33.4777526,61.3275773 Z" id="Stroke-24" stroke="#FFFFFF" stroke-width="0.5" stroke-linejoin="round"></path>
                    <path d="M40.123134,62.1973814 L63.792299,62.1973814 C64.5707423,62.1973814 65.2017526,61.5661546 65.2017526,60.7878557 C65.2017526,60.0095567 64.5707423,59.3784021 63.792299,59.3784021 L40.123134,59.3784021 C39.3446907,59.3784021 38.7136804,60.0095567 38.7136804,60.7878557 C38.7136804,61.5661546 39.3446907,62.1973814 40.123134,62.1973814 Z" id="Fill-25" fill="#3C4262"></path>
                    <path d="M40.123134,62.1973814 L63.792299,62.1973814 C64.5707423,62.1973814 65.2017526,61.5661546 65.2017526,60.7878557 C65.2017526,60.0095567 64.5707423,59.3784021 63.792299,59.3784021 L40.123134,59.3784021 C39.3446907,59.3784021 38.7136804,60.0095567 38.7136804,60.7878557 C38.7136804,61.5661546 39.3446907,62.1973814 40.123134,62.1973814 Z" id="Stroke-26" stroke="#FFFFFF" stroke-width="0.5" stroke-linejoin="round"></path>
                </g>
            </g>
        </g>
    </g>
</svg>